<Qucs Schematic 0.0.18>
<Properties>
  <View=0,-180,1340,1191,0.751315,0,116>
  <Grid=10,10,1>
  <DataSet=s.dat>
  <DataDisplay=s.dpl>
  <OpenDisplay=1>
  <Script=s.m>
  <RunScript=0>
  <showFrame=0>
  <FrameText0=Title>
  <FrameText1=Drawn By:>
  <FrameText2=Date:>
  <FrameText3=Revision:>
</Properties>
<Symbol>
</Symbol>
<Components>
  <C C1 1 660 260 -26 17 0 0 "1 pF" 1 "" 0 "neutral" 0>
  <GND * 1 1240 190 0 0 0 0>
  <VProbe out_U 1 790 180 28 -31 0 0>
  <GND * 1 970 490 0 0 0 0>
  <GND * 1 800 200 0 0 0 0>
  <R R1 1 970 350 15 -26 0 1 "1 kOhm" 1 "26.85" 0 "0.0" 0 "0.0" 0 "26.85" 0 "US" 0>
  <Vac V1 1 110 390 18 -26 0 1 "5 V" 1 "1 kHz" 0 "0" 0 "0" 0>
  <GND * 1 110 490 0 0 0 0>
  <R R2 1 190 330 -26 15 0 0 "100 Ohm" 1 "26.85" 0 "0.0" 0 "0.0" 0 "26.85" 0 "US" 0>
  <GND * 1 450 490 0 0 0 0>
  <R R4 1 450 230 15 -26 0 1 "107 Ohm" 1 "26.85" 0 "0.0" 0 "0.0" 0 "26.85" 0 "US" 0>
  <R R3 1 450 410 15 -26 0 1 "20 Ohm" 1 "26.85" 0 "0.0" 0 "0.0" 0 "26.85" 0 "US" 0>
  <R R5 1 590 200 15 -26 0 1 "50 Ohm" 1 "26.85" 0 "0.0" 0 "0.0" 0 "26.85" 0 "US" 0>
  <Vdc V2 1 1240 40 18 -26 0 1 "12 V" 1>
  <IProbe out_I 1 590 90 16 -26 0 1>
  <_BJT T1 1 550 330 8 -26 0 0 "npn" 1 "1e-16" 1 "1" 1 "1" 0 "0" 0 "0" 0 "0" 1 "0" 0 "0" 0 "1.5" 0 "0" 0 "2" 0 "100" 1 "1" 0 "0" 0 "0" 0 "0" 0 "0" 0 "0" 0 "0" 0 "0.75" 0 "0.33" 0 "0" 0 "0.75" 0 "0.33" 0 "1.0" 0 "0" 0 "0.75" 0 "0" 0 "0.5" 0 "0.0" 0 "0.0" 0 "0.0" 0 "0.0" 0 "0.0" 0 "26.85" 0 "0.0" 0 "1.0" 0 "1.0" 0 "0.0" 0 "1.0" 0 "1.0" 0 "0.0" 0 "0.0" 0 "3.0" 0 "1.11" 0 "26.85" 0 "1.0" 0>
  <C C2 1 270 330 -26 17 0 0 "2 uF" 1 "" 0 "neutral" 0>
  <IProbe in_I 1 350 330 -26 16 0 0>
  <VProbe in_U 1 350 420 28 -31 0 0>
  <GND * 1 360 490 0 0 0 0>
  <GND * 1 770 500 0 0 0 0>
  <R R6 1 770 450 15 -26 0 1 "15 Ohm" 1 "26.85" 0 "0.0" 0 "0.0" 0 "26.85" 0 "US" 0>
  <C C3 1 880 450 17 -26 0 1 "8 uF" 1 "" 0 "neutral" 0>
  <.TR TR1 1 270 80 0 57 0 0 "lin" 1 "2 ms" 1 "3 ms" 1 "80" 0 "Trapezoidal" 0 "2" 0 "1 ns" 0 "1e-16" 0 "150" 0 "0.001" 0 "1 pA" 0 "1 uV" 0 "26.85" 0 "1e-3" 0 "1e-6" 0 "1" 0 "CroutLU" 0 "no" 0 "yes" 0 "0" 0>
</Components>
<Wires>
  <970 380 970 490 "" 0 0 0 "">
  <970 260 970 320 "" 0 0 0 "">
  <690 260 780 260 "" 0 0 0 "">
  <780 260 970 260 "" 0 0 0 "">
  <780 200 780 260 "" 0 0 0 "">
  <110 420 110 490 "" 0 0 0 "">
  <110 330 110 360 "" 0 0 0 "">
  <110 330 160 330 "" 0 0 0 "">
  <450 260 450 330 "" 0 0 0 "">
  <450 330 450 380 "" 0 0 0 "">
  <450 430 450 440 "" 0 0 0 "">
  <450 440 450 490 "" 0 0 0 "">
  <590 260 630 260 "" 0 0 0 "">
  <590 230 590 260 "" 0 0 0 "">
  <1240 70 1240 190 "" 0 0 0 "">
  <450 10 450 200 "" 0 0 0 "">
  <450 10 590 10 "" 0 0 0 "">
  <590 10 1240 10 "" 0 0 0 "">
  <590 10 590 60 "" 0 0 0 "">
  <590 120 590 170 "" 0 0 0 "">
  <550 260 590 260 "" 0 0 0 "">
  <450 330 520 330 "" 0 0 0 "">
  <550 360 550 410 "" 0 0 0 "">
  <550 260 550 300 "" 0 0 0 "">
  <380 330 450 330 "" 0 0 0 "">
  <220 330 240 330 "" 0 0 0 "">
  <300 330 310 330 "" 0 0 0 "">
  <360 440 360 490 "" 0 0 0 "">
  <340 440 340 460 "" 0 0 0 "">
  <310 460 340 460 "" 0 0 0 "">
  <310 330 320 330 "" 0 0 0 "">
  <310 330 310 460 "" 0 0 0 "">
  <880 480 880 490 "" 0 0 0 "">
  <880 410 880 420 "" 0 0 0 "">
  <770 410 880 410 "" 0 0 0 "">
  <770 410 770 420 "" 0 0 0 "">
  <550 410 770 410 "" 0 0 0 "">
  <770 490 880 490 "" 0 0 0 "">
  <770 480 770 490 "" 0 0 0 "">
  <770 490 770 500 "" 0 0 0 "">
</Wires>
<Diagrams>
  <Rect 132 810 1068 201 3 #c0c0c0 1 00 1 0.002 0.0001 0.004 1 -1.59068e-07 1e-07 1.58682e-07 1 0.917441 0.005 0.931328 315 0 225 "" "" "">
	<"out_U.Vt" #0000ff 0 3 0 0 0>
	<"in_U.Vt" #ff0000 0 3 0 0 1>
  </Rect>
  <Rect 120 1036 1088 186 3 #c0c0c0 1 00 1 0.002 0.0001 0.004 1 -0.26704 0.1 0.066921 1 -1 0.5 1 315 0 225 "" "" "">
	<"in_I.It" #0000ff 0 3 0 0 0>
	<"out_I.It" #ff0000 0 3 0 0 1>
  </Rect>
</Diagrams>
<Paintings>
</Paintings>
