<Qucs Schematic 0.0.18>
<Properties>
  <View=0,0,967,800,1,0,0>
  <Grid=10,10,1>
  <DataSet=s1.dat>
  <DataDisplay=s1.dpl>
  <OpenDisplay=1>
  <Script=s1.m>
  <RunScript=0>
  <showFrame=0>
  <FrameText0=Title>
  <FrameText1=Drawn By:>
  <FrameText2=Date:>
  <FrameText3=Revision:>
</Properties>
<Symbol>
</Symbol>
<Components>
  <OpAmp OP1 1 490 310 -26 -70 1 0 "1e6" 1 "15 V" 0>
  <GND * 1 660 490 0 0 0 0>
  <VProbe sv 1 500 60 28 -31 0 0>
  <VProbe out 1 880 370 28 -31 0 0>
  <VProbe in 1 140 360 28 -31 0 0>
  <GND * 1 890 390 0 0 0 0>
  <GND * 1 150 380 0 0 0 0>
  <GND * 1 230 470 0 0 0 0>
  <R R3 1 660 410 15 -26 0 1 "1 kOhm" 1 "26.85" 0 "0.0" 0 "0.0" 0 "26.85" 0 "US" 0>
  <GND * 1 420 470 0 0 0 0>
  <R R4 1 420 440 15 -26 0 1 "1 kOhm" 1 "26.85" 0 "0.0" 0 "0.0" 0 "26.85" 0 "US" 0>
  <R R1 1 300 290 -26 15 0 0 "10 kOhm" 1 "26.85" 0 "0.0" 0 "0.0" 0 "26.85" 0 "US" 0>
  <R R2 1 510 160 -26 15 0 0 "100 kOhm" 1 "26.85" 0 "0.0" 0 "0.0" 0 "26.85" 0 "US" 0>
  <.TR TR1 1 190 630 0 57 0 0 "lin" 1 "2 ms" 1 "4 ms" 1 "100" 0 "Trapezoidal" 0 "2" 0 "1 ns" 0 "1e-16" 0 "150" 0 "0.001" 0 "1 pA" 0 "1 uV" 0 "26.85" 0 "1e-3" 0 "1e-6" 0 "1" 0 "CroutLU" 0 "no" 0 "yes" 0 "0" 0>
  <Vac V1 1 230 410 18 -26 0 1 "1 V" 1 "1 kHz" 0 "0" 0 "0" 0>
</Components>
<Wires>
  <410 160 480 160 "" 0 0 0 "">
  <410 290 460 290 "" 0 0 0 "">
  <410 160 410 290 "" 0 0 0 "">
  <530 310 660 310 "" 0 0 0 "">
  <660 160 660 310 "" 0 0 0 "">
  <540 160 660 160 "" 0 0 0 "">
  <660 310 660 380 "" 0 0 0 "">
  <660 440 660 490 "" 0 0 0 "">
  <510 80 660 80 "" 0 0 0 "">
  <660 80 660 160 "" 0 0 0 "">
  <410 80 490 80 "" 0 0 0 "">
  <870 390 870 400 "" 0 0 0 "">
  <760 400 870 400 "" 0 0 0 "">
  <760 310 760 400 "" 0 0 0 "">
  <660 310 760 310 "" 0 0 0 "">
  <60 380 130 380 "" 0 0 0 "">
  <60 290 60 380 "" 0 0 0 "">
  <60 290 230 290 "" 0 0 0 "">
  <230 290 270 290 "" 0 0 0 "">
  <410 80 410 160 "" 0 0 0 "">
  <420 330 460 330 "" 0 0 0 "">
  <420 330 420 410 "" 0 0 0 "">
  <230 440 230 470 "" 0 0 0 "">
  <230 290 230 380 "" 0 0 0 "">
  <330 290 410 290 "" 0 0 0 "">
</Wires>
<Diagrams>
  <Tab 570 800 300 200 3 #c0c0c0 1 00 1 0 1 1 1 0 1 1 1 0 1 100 315 0 225 "" "" "">
	<"in.Vt" #0000ff 0 3 1 0 0>
	<"out.Vt" #0000ff 0 3 1 0 0>
	<"sv.Vt" #0000ff 0 3 1 0 0>
  </Tab>
</Diagrams>
<Paintings>
</Paintings>
