<Qucs Schematic 0.0.18>
<Properties>
  <View=0,0,922,800,1,0,0>
  <Grid=10,10,1>
  <DataSet=s2.dat>
  <DataDisplay=s2.dpl>
  <OpenDisplay=1>
  <Script=s2.m>
  <RunScript=0>
  <showFrame=0>
  <FrameText0=Title>
  <FrameText1=Drawn By:>
  <FrameText2=Date:>
  <FrameText3=Revision:>
</Properties>
<Symbol>
</Symbol>
<Components>
  <GND * 1 370 400 0 0 0 0>
  <OpAmp OP1 1 440 340 -26 -70 1 0 "1e6" 1 "15 V" 0>
  <R R1 1 250 320 -26 15 0 0 "1 kOhm" 1 "26.85" 0 "0.0" 0 "0.0" 0 "26.85" 0 "US" 0>
  <R R2 1 460 190 -26 15 0 0 "10 kOhm" 1 "26.85" 0 "0.0" 0 "0.0" 0 "26.85" 0 "US" 0>
  <GND * 1 610 520 0 0 0 0>
  <VProbe sv1 1 450 90 28 -31 0 0>
  <VProbe out1 1 830 400 28 -31 0 0>
  <VProbe in1 1 90 390 28 -31 0 0>
  <GND * 1 840 420 0 0 0 0>
  <GND * 1 100 410 0 0 0 0>
  <GND * 1 180 500 0 0 0 0>
  <R R3 1 610 440 15 -26 0 1 "1 kOhm" 1 "26.85" 0 "0.0" 0 "0.0" 0 "26.85" 0 "US" 0>
  <Vac V1 1 180 440 18 -26 0 1 "0.3 V" 1 "1 Hz" 0 "0" 0 "0" 0>
  <.TR TR1 1 140 660 0 57 0 0 "lin" 1 "2 s" 1 "3 s" 1 "501" 0 "Trapezoidal" 0 "2" 0 "1 ns" 0 "1e-16" 0 "150" 0 "0.001" 0 "1 pA" 0 "1 uV" 0 "26.85" 0 "1e-3" 0 "1e-6" 0 "1" 0 "CroutLU" 0 "no" 0 "yes" 0 "0" 0>
</Components>
<Wires>
  <370 360 370 400 "" 0 0 0 "">
  <370 360 410 360 "" 0 0 0 "">
  <360 190 430 190 "" 0 0 0 "">
  <280 320 360 320 "" 0 0 0 "">
  <360 320 410 320 "" 0 0 0 "">
  <360 190 360 320 "" 0 0 0 "">
  <480 340 610 340 "" 0 0 0 "">
  <610 190 610 340 "" 0 0 0 "">
  <490 190 610 190 "" 0 0 0 "">
  <610 340 610 410 "" 0 0 0 "">
  <610 470 610 520 "" 0 0 0 "">
  <460 110 610 110 "" 0 0 0 "">
  <610 110 610 190 "" 0 0 0 "">
  <360 110 440 110 "" 0 0 0 "">
  <820 420 820 430 "" 0 0 0 "">
  <710 430 820 430 "" 0 0 0 "">
  <710 340 710 430 "" 0 0 0 "">
  <610 340 710 340 "" 0 0 0 "">
  <10 410 80 410 "" 0 0 0 "">
  <10 320 10 410 "" 0 0 0 "">
  <10 320 180 320 "" 0 0 0 "">
  <180 320 220 320 "" 0 0 0 "">
  <360 110 360 190 "" 0 0 0 "">
  <180 470 180 500 "" 0 0 0 "">
  <180 320 180 410 "" 0 0 0 "">
</Wires>
<Diagrams>
</Diagrams>
<Paintings>
</Paintings>
