<Qucs Schematic 0.0.18>
<Properties>
  <View=0,0,1037,928,1,0,0>
  <Grid=10,10,1>
  <DataSet=task5.dat>
  <DataDisplay=task5.dpl>
  <OpenDisplay=1>
  <Script=task5.m>
  <RunScript=0>
  <showFrame=0>
  <FrameText0=Title>
  <FrameText1=Drawn By:>
  <FrameText2=Date:>
  <FrameText3=Revision:>
</Properties>
<Symbol>
</Symbol>
<Components>
  <.TR TR1 1 180 600 0 61 0 0 "lin" 1 "0.2 ms" 1 "0.4 ms" 1 "100" 0 "Trapezoidal" 0 "2" 0 "1 ns" 0 "1e-16" 0 "150" 0 "0.001" 0 "1 pA" 0 "1 uV" 0 "26.85" 0 "1e-3" 0 "1e-6" 0 "1" 0 "CroutLU" 0 "no" 0 "yes" 0 "0" 0>
  <Diode D1 1 600 410 -26 -29 0 2 "1e-15 A" 0 "1" 0 "10 fF" 0 "0.5" 0 "0.7 V" 0 "0.5" 0 "0.0 fF" 0 "0.0" 0 "2.0" 0 "0.0 Ohm" 0 "0.0 ps" 0 "0" 0 "0.0" 0 "1.0" 0 "1.0" 0 "0" 0 "1 mA" 0 "26.85" 0 "3.0" 0 "1.11" 0 "0.0" 0 "0.0" 0 "0.0" 0 "0.0" 0 "0.0" 0 "0.0" 0 "26.85" 0 "1.0" 0 "normal" 0>
  <Diode D2 1 600 550 -26 -29 0 2 "1e-15 A" 0 "1" 0 "10 fF" 0 "0.5" 0 "0.7 V" 0 "0.5" 0 "0.0 fF" 0 "0.0" 0 "2.0" 0 "0.0 Ohm" 0 "0.0 ps" 0 "0" 0 "0.0" 0 "1.0" 0 "1.0" 0 "0" 0 "1 mA" 0 "26.85" 0 "3.0" 0 "1.11" 0 "0.0" 0 "0.0" 0 "0.0" 0 "0.0" 0 "0.0" 0 "0.0" 0 "26.85" 0 "1.0" 0 "normal" 0>
  <GND * 1 530 480 0 0 0 0>
  <VProbe U_in1 1 580 460 -16 28 0 3>
  <GND * 1 780 580 0 0 0 0>
  <VProbe U_out1 1 900 320 28 -31 0 0>
  <GND * 1 910 340 0 0 0 0>
  <R R1 1 780 550 15 -26 0 1 "10 kOhm" 1 "26.85" 0 "0.0" 0 "0.0" 0 "26.85" 0 "US" 0>
  <C C1 1 720 500 17 -26 0 1 "5 uF" 1 "" 0 "neutral" 0>
  <Vac V2 1 460 440 18 -26 0 1 "50 V" 1 "5 kHz" 1 "0" 0 "0" 0>
  <Vac V3 1 460 520 18 -26 0 1 "50 V" 1 "5 kHz" 1 "0" 0 "0" 0>
</Components>
<Wires>
  <510 480 530 480 "" 0 0 0 "">
  <630 410 630 450 "" 0 0 0 "">
  <560 410 570 410 "" 0 0 0 "">
  <560 410 560 450 "" 0 0 0 "">
  <560 550 570 550 "" 0 0 0 "">
  <560 470 560 550 "" 0 0 0 "">
  <780 450 780 520 "" 0 0 0 "">
  <780 450 890 450 "" 0 0 0 "">
  <890 340 890 450 "" 0 0 0 "">
  <630 450 630 550 "" 0 0 0 "">
  <630 450 710 450 "" 0 0 0 "">
  <710 450 780 450 "" 0 0 0 "">
  <710 470 720 470 "" 0 0 0 "">
  <710 450 710 470 "" 0 0 0 "">
  <720 580 780 580 "" 0 0 0 "">
  <720 530 720 580 "" 0 0 0 "">
  <460 550 560 550 "" 0 0 0 "">
  <460 490 510 490 "" 0 0 0 "">
  <510 480 510 490 "" 0 0 0 "">
  <460 470 510 470 "" 0 0 0 "">
  <510 470 510 480 "" 0 0 0 "">
  <460 410 560 410 "" 0 0 0 "">
</Wires>
<Diagrams>
</Diagrams>
<Paintings>
</Paintings>
