<Qucs Schematic 0.0.18>
<Properties>
  <View=0,-60,1332,928,1,0,60>
  <Grid=10,10,1>
  <DataSet=task3.dat>
  <DataDisplay=task3.dpl>
  <OpenDisplay=1>
  <Script=task3.m>
  <RunScript=0>
  <showFrame=0>
  <FrameText0=Title>
  <FrameText1=Drawn By:>
  <FrameText2=Date:>
  <FrameText3=Revision:>
</Properties>
<Symbol>
</Symbol>
<Components>
  <Diode D3 1 740 390 -26 -71 0 2 "1e-15 A" 1 "1" 1 "10 fF" 1 "0.5" 0 "0.7 V" 0 "0.5" 0 "0.0 fF" 0 "0.0" 0 "2.0" 0 "0.0 Ohm" 0 "0.0 ps" 0 "0" 0 "0.0" 0 "1.0" 0 "1.0" 0 "0" 0 "1 mA" 0 "26.85" 0 "3.0" 0 "1.11" 0 "0.0" 0 "0.0" 0 "0.0" 0 "0.0" 0 "0.0" 0 "0.0" 0 "26.85" 0 "1.0" 0 "normal" 0>
  <GND * 1 1000 360 0 0 0 0>
  <Vac V1 1 1000 330 18 -26 0 1 "100 V" 1 "5 kHz" 1 "0" 0 "0" 0>
  <Diode D4 1 740 100 -26 -71 1 0 "1e-15 A" 1 "1" 1 "10 fF" 1 "0.5" 0 "0.7 V" 0 "0.5" 0 "0.0 fF" 0 "0.0" 0 "2.0" 0 "0.0 Ohm" 0 "0.0 ps" 0 "0" 0 "0.0" 0 "1.0" 0 "1.0" 0 "0" 0 "1 mA" 0 "26.85" 0 "3.0" 0 "1.11" 0 "0.0" 0 "0.0" 0 "0.0" 0 "0.0" 0 "0.0" 0 "0.0" 0 "26.85" 0 "1.0" 0 "normal" 0>
  <.TR TR1 1 990 80 0 61 0 0 "lin" 1 "0.2 ms" 1 "0.4 ms" 1 "100" 0 "Trapezoidal" 0 "2" 0 "1 ns" 0 "1e-16" 0 "150" 0 "0.001" 0 "1 pA" 0 "1 uV" 0 "26.85" 0 "1e-3" 0 "1e-6" 0 "1" 0 "CroutLU" 0 "no" 0 "yes" 0 "0" 0>
  <Diode D2 1 320 390 -26 -71 1 0 "1e-15 A" 1 "1" 1 "10 fF" 1 "0.5" 0 "0.7 V" 0 "0.5" 0 "0.0 fF" 0 "0.0" 0 "2.0" 0 "0.0 Ohm" 0 "0.0 ps" 0 "0" 0 "0.0" 0 "1.0" 0 "1.0" 0 "0" 0 "1 mA" 0 "26.85" 0 "3.0" 0 "1.11" 0 "0.0" 0 "0.0" 0 "0.0" 0 "0.0" 0 "0.0" 0 "0.0" 0 "26.85" 0 "1.0" 0 "normal" 0>
  <Diode D1 1 320 100 -26 -71 0 2 "1e-15 A" 1 "1" 1 "10 fF" 1 "0.5" 0 "0.7 V" 0 "0.5" 0 "0.0 fF" 0 "0.0" 0 "2.0" 0 "0.0 Ohm" 0 "0.0 ps" 0 "0" 0 "0.0" 0 "1.0" 0 "1.0" 0 "0" 0 "1 mA" 0 "26.85" 0 "3.0" 0 "1.11" 0 "0.0" 0 "0.0" 0 "0.0" 0 "0.0" 0 "0.0" 0 "0.0" 0 "26.85" 0 "1.0" 0 "normal" 0>
  <VProbe out 1 590 190 28 -31 0 0>
  <VProbe in 1 890 150 28 -31 0 0>
  <GND * 1 900 170 0 0 0 0>
  <GND * 1 230 230 0 0 0 0>
  <R R1 1 470 230 15 -26 0 1 "10 kOhm" 1 "26.85" 0 "0.0" 0 "0.0" 0 "26.85" 0 "US" 0>
</Components>
<Wires>
  <770 250 770 390 "" 0 0 0 "">
  <1000 250 1000 300 "" 0 0 0 "">
  <770 250 880 250 "" 0 0 0 "">
  <770 100 770 250 "" 0 0 0 "">
  <350 100 470 100 "" 0 0 0 "">
  <350 390 470 390 "" 0 0 0 "">
  <290 100 290 180 "" 0 0 0 "">
  <600 390 710 390 "" 0 0 0 "">
  <600 210 600 390 "" 0 0 0 "">
  <580 210 580 220 "" 0 0 0 "">
  <540 220 580 220 "" 0 0 0 "">
  <540 100 710 100 "" 0 0 0 "">
  <540 100 540 220 "" 0 0 0 "">
  <470 100 540 100 "" 0 0 0 "">
  <470 100 470 200 "" 0 0 0 "">
  <470 390 600 390 "" 0 0 0 "">
  <470 260 470 390 "" 0 0 0 "">
  <880 250 1000 250 "" 0 0 0 "">
  <880 170 880 250 "" 0 0 0 "">
  <230 180 230 230 "" 0 0 0 "">
  <290 180 290 390 "" 0 0 0 "">
  <230 180 290 180 "" 0 0 0 "">
</Wires>
<Diagrams>
</Diagrams>
<Paintings>
</Paintings>
