<Qucs Schematic 0.0.18>
<Properties>
  <View=0,0,1027,800,1,0,0>
  <Grid=10,10,1>
  <DataSet=task6.dat>
  <DataDisplay=task6.dpl>
  <OpenDisplay=1>
  <Script=task6.m>
  <RunScript=0>
  <showFrame=0>
  <FrameText0=Title>
  <FrameText1=Drawn By:>
  <FrameText2=Date:>
  <FrameText3=Revision:>
</Properties>
<Symbol>
</Symbol>
<Components>
  <.TR TR1 1 200 480 0 61 0 0 "lin" 1 "0.2 ms" 1 "0.4 ms" 1 "100" 0 "Trapezoidal" 0 "2" 0 "1 ns" 0 "1e-16" 0 "150" 0 "0.001" 0 "1 pA" 0 "1 uV" 0 "26.85" 0 "1e-3" 0 "1e-6" 0 "1" 0 "CroutLU" 0 "no" 0 "yes" 0 "0" 0>
  <Vac V1 1 330 360 18 -26 0 1 "100 V" 1 "5 kHz" 1 "0" 0 "0" 0>
  <sTr Tr1 1 500 360 -29 78 1 2 "0.5" 1 "0.5" 1>
  <Diode D1 1 620 290 -26 -29 0 2 "1e-15 A" 0 "1" 0 "10 fF" 0 "0.5" 0 "0.7 V" 0 "0.5" 0 "0.0 fF" 0 "0.0" 0 "2.0" 0 "0.0 Ohm" 0 "0.0 ps" 0 "0" 0 "0.0" 0 "1.0" 0 "1.0" 0 "0" 0 "1 mA" 0 "26.85" 0 "3.0" 0 "1.11" 0 "0.0" 0 "0.0" 0 "0.0" 0 "0.0" 0 "0.0" 0 "0.0" 0 "26.85" 0 "1.0" 0 "normal" 0>
  <Diode D2 1 620 430 -26 -29 0 2 "1e-15 A" 0 "1" 0 "10 fF" 0 "0.5" 0 "0.7 V" 0 "0.5" 0 "0.0 fF" 0 "0.0" 0 "2.0" 0 "0.0 Ohm" 0 "0.0 ps" 0 "0" 0 "0.0" 0 "1.0" 0 "1.0" 0 "0" 0 "1 mA" 0 "26.85" 0 "3.0" 0 "1.11" 0 "0.0" 0 "0.0" 0 "0.0" 0 "0.0" 0 "0.0" 0 "0.0" 0 "26.85" 0 "1.0" 0 "normal" 0>
  <GND * 1 550 360 0 0 0 0>
  <VProbe U_in1 1 600 340 -16 28 0 3>
  <GND * 1 800 460 0 0 0 0>
  <VProbe U_out1 1 920 200 28 -31 0 0>
  <GND * 1 930 220 0 0 0 0>
  <R R1 1 800 430 15 -26 0 1 "10 kOhm" 1 "26.85" 0 "0.0" 0 "0.0" 0 "26.85" 0 "US" 0>
  <C C1 1 730 430 17 -26 0 1 "5 uF" 1 "" 0 "neutral" 0>
  <GND * 1 730 460 0 0 0 0>
</Components>
<Wires>
  <330 330 470 330 "" 0 0 0 "">
  <330 390 470 390 "" 0 0 0 "">
  <530 350 530 360 "" 0 0 0 "">
  <530 360 530 370 "" 0 0 0 "">
  <530 360 550 360 "" 0 0 0 "">
  <530 290 580 290 "" 0 0 0 "">
  <580 290 590 290 "" 0 0 0 "">
  <580 290 580 330 "" 0 0 0 "">
  <530 430 580 430 "" 0 0 0 "">
  <580 430 590 430 "" 0 0 0 "">
  <580 350 580 430 "" 0 0 0 "">
  <800 330 800 400 "" 0 0 0 "">
  <800 330 910 330 "" 0 0 0 "">
  <910 220 910 330 "" 0 0 0 "">
  <650 290 650 330 "" 0 0 0 "">
  <650 330 650 430 "" 0 0 0 "">
  <650 330 730 330 "" 0 0 0 "">
  <730 330 800 330 "" 0 0 0 "">
  <730 330 730 400 "" 0 0 0 "">
</Wires>
<Diagrams>
</Diagrams>
<Paintings>
</Paintings>
